\relax 
\providecommand\hyper@newdestlabel[2]{}
\providecommand*{\memsetcounter}[2]{}
\catcode `"\active 
\providecommand\HyperFirstAtBeginDocument{\AtBeginDocument}
\HyperFirstAtBeginDocument{\ifx\hyper@anchor\@undefined
\global\let\oldcontentsline\contentsline
\gdef\contentsline#1#2#3#4{\oldcontentsline{#1}{#2}{#3}}
\global\let\oldnewlabel\newlabel
\gdef\newlabel#1#2{\newlabelxx{#1}#2}
\gdef\newlabelxx#1#2#3#4#5#6{\oldnewlabel{#1}{{#2}{#3}}}
\AtEndDocument{\ifx\hyper@anchor\@undefined
\let\contentsline\oldcontentsline
\let\newlabel\oldnewlabel
\fi}
\fi}
\global\let\hyper@last\relax 
\gdef\HyperFirstAtBeginDocument#1{#1}
\providecommand\HyField@AuxAddToFields[1]{}
\providecommand\HyField@AuxAddToCoFields[2]{}
\select@language{brazil}
\@writefile{toc}{\select@language{brazil}}
\@writefile{lof}{\select@language{brazil}}
\@writefile{lot}{\select@language{brazil}}
\citation{tougaw1994logical}
\@writefile{toc}{\contentsline {chapter}{Lista de Figuras}{iv}{section*.1}}
\citation{pedro2018}
\citation{reis2016methodology}
\citation{reis2016methodology}
\citation{trindade2016placement}
\@writefile{toc}{\contentsline {chapter}{Lista de Tabelas}{vii}{section*.2}}
\setcounter{ppgcc@fc@frontpages}{7}
 
\citation{moore1998cramming}
\citation{moore1998cramming}
\citation{kim2006quantum}
\citation{lent1997device}
\citation{reis2016methodology}
\citation{trindade2016placement}
\citation{campos2016use}
\citation{trindade2016placement}
\citation{reis2016methodology}
\@writefile{lof}{\addvspace {10pt}}
\@writefile{lot}{\addvspace {10pt}}
\@writefile{toc}{\contentsline {chapter}{\chapternumberline {1}Introdu\IeC {\c c}\IeC {\~a}o}{1}{chapter.1}}
\newlabel{cap1}{{\M@TitleReference {1}{Introdu\IeC {\c c}\IeC {\~a}o}}{1}{Introdução}{chapter.1}{}}
\@writefile{toc}{\contentsline {section}{\numberline {1.1}Motiva\IeC {\c c}\IeC {\~a}o}{1}{section.1.1}}
\citation{walus2004qcadesigner}
\citation{campos2016use}
\@writefile{toc}{\contentsline {section}{\numberline {1.2}Objetivos e Metas}{2}{section.1.2}}
\@writefile{toc}{\contentsline {section}{\numberline {1.3}Organiza\IeC {\c c}\IeC {\~a}o da disserta\IeC {\c c}\IeC {\~a}o}{2}{section.1.3}}
\ppgcc@fc@ilaux{}
 
\citation{tougaw1994logical}
\citation{orlov1997realization}
\@writefile{lof}{\addvspace {10pt}}
\@writefile{lot}{\addvspace {10pt}}
\@writefile{toc}{\contentsline {chapter}{\chapternumberline {2}Aut\IeC {\^o}matos Celulares com Pontos Qu\IeC {\^a}nticos (QCA)}{4}{chapter.2}}
\@writefile{toc}{\contentsline {section}{\numberline {2.1}C\IeC {\'e}lula QCA}{4}{section.2.1}}
\@writefile{lof}{\contentsline {figure}{\numberline {2.1}{\ignorespaces Tunelamento entre quatro pontos qu\IeC {\^a}nticos em uma c\IeC {\'e}lula QCA. \relax }}{4}{figure.caption.3}}
\providecommand*\caption@xref[2]{\@setref\relax\@undefined{#1}}
\newlabel{fig:tunelamento}{{\M@TitleReference {2.1}{Tunelamento entre quatro pontos qu\IeC {\^a}nticos em uma c\IeC {\'e}lula QCA. \relax }}{4}{Tunelamento entre quatro pontos quânticos em uma célula QCA. \relax }{figure.caption.3}{}}
\@writefile{lof}{\contentsline {figure}{\numberline {2.2}{\ignorespaces Dois poss\IeC {\'\i }veis estados de polariza\IeC {\c c}\IeC {\~a}o em uma c\IeC {\'e}lula QCA. \relax }}{5}{figure.caption.4}}
\newlabel{fig:QCAPolarizacao}{{\M@TitleReference {2.2}{Dois poss\IeC {\'\i }veis estados de polariza\IeC {\c c}\IeC {\~a}o em uma c\IeC {\'e}lula QCA. \relax }}{5}{Dois possíveis estados de polarização em uma célula QCA. \relax }{figure.caption.4}{}}
\@writefile{lof}{\contentsline {figure}{\numberline {2.3}{\ignorespaces c\IeC {\'e}lula QCA induzindo a polariza\IeC {\c c}\IeC {\~a}o de uma segunda c\IeC {\'e}lula. \relax }}{5}{figure.caption.5}}
\newlabel{fig:inducaoPolarizacao}{{\M@TitleReference {2.3}{c\IeC {\'e}lula QCA induzindo a polariza\IeC {\c c}\IeC {\~a}o de uma segunda c\IeC {\'e}lula. \relax }}{5}{célula QCA induzindo a polarização de uma segunda célula. \relax }{figure.caption.5}{}}
\@writefile{toc}{\contentsline {section}{\numberline {2.2}Elementos B\IeC {\'a}sicos}{6}{section.2.2}}
\@writefile{toc}{\contentsline {subsection}{\numberline {2.2.1}Fio}{6}{subsection.2.2.1}}
\@writefile{lof}{\contentsline {figure}{\numberline {2.4}{\ignorespaces Fio constru\IeC {\'\i }do com c\IeC {\'e}lulas QCA. \relax }}{6}{figure.caption.6}}
\newlabel{fig:fioQCA}{{\M@TitleReference {2.4}{Fio constru\IeC {\'\i }do com c\IeC {\'e}lulas QCA. \relax }}{6}{Fio construído com células QCA. \relax }{figure.caption.6}{}}
\@writefile{toc}{\contentsline {subsection}{\numberline {2.2.2}Inversor}{6}{subsection.2.2.2}}
\citation{tougaw1994logical}
\citation{tougaw1994logical}
\citation{tougaw1994logical}
\citation{tougaw1994logical}
\citation{campos2016use}
\citation{reis2016methodology}
\@writefile{lof}{\contentsline {figure}{\numberline {2.5}{\ignorespaces Fanout em um fio constru\IeC {\'\i }do com c\IeC {\'e}lulas QCA. \relax }}{7}{figure.caption.7}}
\newlabel{fig:fanout}{{\M@TitleReference {2.5}{Fanout em um fio constru\IeC {\'\i }do com c\IeC {\'e}lulas QCA. \relax }}{7}{Fanout em um fio construído com células QCA. \relax }{figure.caption.7}{}}
\@writefile{lof}{\contentsline {figure}{\numberline {2.6}{\ignorespaces Invers\IeC {\~a}o da Polariza\IeC {\c c}\IeC {\~a}o de c\IeC {\'e}lulas posicionadas ortogonalmente.\relax }}{7}{figure.caption.8}}
\newlabel{fig:inversorFio}{{\M@TitleReference {2.6}{Invers\IeC {\~a}o da Polariza\IeC {\c c}\IeC {\~a}o de c\IeC {\'e}lulas posicionadas ortogonalmente.\relax }}{7}{Inversão da Polarização de células posicionadas ortogonalmente.\relax }{figure.caption.8}{}}
\@writefile{toc}{\contentsline {subsection}{\numberline {2.2.3}Porta Majority ou Maioria}{7}{subsection.2.2.3}}
\@writefile{lof}{\contentsline {figure}{\numberline {2.7}{\ignorespaces Inversor proposto em \citep  {tougaw1994logical} constru\IeC {\'\i }do com redund\IeC {\^a}ncia de sinal. \relax }}{8}{figure.caption.9}}
\newlabel{fig:inversorLent}{{\M@TitleReference {2.7}{Inversor proposto em \citep  {tougaw1994logical} constru\IeC {\'\i }do com redund\IeC {\^a}ncia de sinal. \relax }}{8}{Inversor proposto em \citep {tougaw1994logical} construído com redundância de sinal. \relax }{figure.caption.9}{}}
\newlabel{fig:majority1}{{\M@TitleReference {2.8a}{Projeto em cruz para uma porta majority.\relax }}{8}{Projeto em cruz para uma porta majority.\relax }{figure.caption.10}{}}
\newlabel{sub@fig:majority1}{{\M@TitleReference {a}{Projeto em cruz para uma porta majority.\relax }}{8}{Projeto em cruz para uma porta majority.\relax }{figure.caption.10}{}}
\newlabel{fig:tabelaVerdade}{{\M@TitleReference {2.8b}{tabela Verdade fixando a entrada \textit  {z}.\relax }}{8}{tabela Verdade fixando a entrada \textit {z}.\relax }{figure.caption.10}{}}
\newlabel{sub@fig:tabelaVerdade}{{\M@TitleReference {b}{tabela Verdade fixando a entrada \textit  {z}.\relax }}{8}{tabela Verdade fixando a entrada \textit {z}.\relax }{figure.caption.10}{}}
\@writefile{lof}{\contentsline {figure}{\numberline {2.8}{\ignorespaces Porta Majority e tabela verdade fixando uma entrada\relax }}{8}{figure.caption.10}}
\newlabel{fig:exemploDistancia3}{{\M@TitleReference {2.8}{Porta Majority e tabela verdade fixando uma entrada\relax }}{8}{Porta Majority e tabela verdade fixando uma entrada\relax }{figure.caption.10}{}}
\citation{patitz2006fault}
\citation{bhanja2006novel}
\citation{graunke2005implementation}
\citation{shin2013wire}
\@writefile{lof}{\contentsline {figure}{\numberline {2.9}{\ignorespaces Porta majority usada com o USE. \relax }}{9}{figure.caption.11}}
\newlabel{fig:majority}{{\M@TitleReference {2.9}{Porta majority usada com o USE. \relax }}{9}{Porta majority usada com o USE. \relax }{figure.caption.11}{}}
\@writefile{toc}{\contentsline {subsection}{\numberline {2.2.4}Cruzamento de Fios}{9}{subsection.2.2.4}}
\@writefile{lof}{\contentsline {figure}{\numberline {2.10}{\ignorespaces Cruzamento coplanar. \relax }}{10}{figure.caption.12}}
\newlabel{fig:cruzamentoCoplanar}{{\M@TitleReference {2.10}{Cruzamento coplanar. \relax }}{10}{Cruzamento coplanar. \relax }{figure.caption.12}{}}
\@writefile{lof}{\contentsline {figure}{\numberline {2.11}{\ignorespaces Cruzamento em camadas. \relax }}{10}{figure.caption.13}}
\newlabel{fig:cruzamentoCamadas}{{\M@TitleReference {2.11}{Cruzamento em camadas. \relax }}{10}{Cruzamento em camadas. \relax }{figure.caption.13}{}}
\@writefile{toc}{\contentsline {section}{\numberline {2.3}Zonas de Clock}{10}{section.2.3}}
\citation{lent1997device}
\citation{walus2003computer}
\citation{niemier2000designing}
\citation{vankamamidi2008two}
\citation{campos2016use}
\citation{vankamamidi2008two}
\citation{henderson2004incorporating}
\@writefile{toc}{\contentsline {section}{\numberline {2.4}USE}{11}{section.2.4}}
\@writefile{toc}{\contentsline {section}{\numberline {2.5}Posicionamento e Roteamento}{11}{section.2.5}}
\citation{walus2004qcadesigner}
\citation{campos2016use}
\@writefile{lof}{\contentsline {figure}{\numberline {2.12}{\ignorespaces Esquema de clock USE. \relax }}{12}{figure.caption.14}}
\newlabel{fig:USE}{{\M@TitleReference {2.12}{Esquema de clock USE. \relax }}{12}{Esquema de clock USE. \relax }{figure.caption.14}{}}
\@writefile{toc}{\contentsline {section}{\numberline {2.6}Simuladores}{12}{section.2.6}}
\citation{donath1980}
\citation{luu2011}
\citation{maidee2995}
\citation{lin2013}
\@writefile{lof}{\addvspace {10pt}}
\@writefile{lot}{\addvspace {10pt}}
\@writefile{toc}{\contentsline {chapter}{\chapternumberline {3}Trabalhos Relacionados}{14}{chapter.3}}
\citation{ravichandran2004automatic}
\citation{bubna2008layout}
\citation{teodosio2007qca}
\citation{trindade2016placement}
\citation{reis2016methodology}
\citation{ravichandran2004automatic}
\citation{bubna2008layout}
\citation{ravichandran2004automatic}
\citation{bubna2008layout}
\citation{ravichandran2004automatic,bubna2008layout}
\citation{reis2016methodology}
\citation{trindade2016placement}
\citation{teodosio2007qca}
\citation{teodosio2007qca}
\citation{trindade2016placement}
\citation{trindade2016placement}
\citation{trindade2016placement}
\citation{trindade2016placement}
\citation{trindade2016placement}
\citation{trindade2016placement}
\@writefile{lof}{\contentsline {figure}{\numberline {3.1}{\ignorespaces Inser\IeC {\c c}\IeC {\~a}o e duplica\IeC {\c c}\IeC {\~a}o de n\IeC {\'o}s no grafo. \relax }}{16}{figure.caption.15}}
\newlabel{fig:replicaPorta}{{\M@TitleReference {3.1}{Inser\IeC {\c c}\IeC {\~a}o e duplica\IeC {\c c}\IeC {\~a}o de n\IeC {\'o}s no grafo. \relax }}{16}{Inserção e duplicação de nós no grafo. \relax }{figure.caption.15}{}}
\citation{trindade2016placement}
\citation{trindade2016placement}
\newlabel{fig:alisonA}{{\M@TitleReference {3.2a}{Grafo sem balanceamento.\relax }}{17}{Grafo sem balanceamento.\relax }{figure.caption.16}{}}
\newlabel{sub@fig:alisonA}{{\M@TitleReference {a}{Grafo sem balanceamento.\relax }}{17}{Grafo sem balanceamento.\relax }{figure.caption.16}{}}
\newlabel{fig:alisonB}{{\M@TitleReference {3.2b}{Grafo balanceado.\relax }}{17}{Grafo balanceado.\relax }{figure.caption.16}{}}
\newlabel{sub@fig:alisonB}{{\M@TitleReference {b}{Grafo balanceado.\relax }}{17}{Grafo balanceado.\relax }{figure.caption.16}{}}
\@writefile{lof}{\contentsline {figure}{\numberline {3.2}{\ignorespaces Grafo separado por n\IeC {\'\i }veis\relax }}{17}{figure.caption.16}}
\newlabel{fig:alison}{{\M@TitleReference {3.2}{Grafo separado por n\IeC {\'\i }veis\relax }}{17}{Grafo separado por níveis\relax }{figure.caption.16}{}}
\citation{trindade2016placement}
\citation{trindade2016placement}
\newlabel{fig:PESOxAREAmenor}{{\M@TitleReference {3.3a}{\relax }}{18}{\relax }{figure.caption.17}{}}
\newlabel{sub@fig:PESOxAREAmenor}{{\M@TitleReference {a}{\relax }}{18}{\relax }{figure.caption.17}{}}
\newlabel{fig:PESOxAREAmaior}{{\M@TitleReference {3.3b}{\relax }}{18}{\relax }{figure.caption.17}{}}
\newlabel{sub@fig:PESOxAREAmaior}{{\M@TitleReference {b}{\relax }}{18}{\relax }{figure.caption.17}{}}
\@writefile{lof}{\contentsline {figure}{\numberline {3.3}{\ignorespaces Impacto do espa\IeC {\c c}amento entre n\IeC {\'\i }veis.\relax }}{18}{figure.caption.17}}
\newlabel{fig:PESOxAREA}{{\M@TitleReference {3.3}{Impacto do espa\IeC {\c c}amento entre n\IeC {\'\i }veis.\relax }}{18}{Impacto do espaçamento entre níveis.\relax }{figure.caption.17}{}}
\@writefile{lof}{\addvspace {10pt}}
\@writefile{lot}{\addvspace {10pt}}
\@writefile{toc}{\contentsline {chapter}{\chapternumberline {4}Algoritmo de P\&R}{19}{chapter.4}}
\@writefile{toc}{\contentsline {section}{\numberline {4.1}Formula\IeC {\c c}\IeC {\~a}o do Problema}{19}{section.4.1}}
\@writefile{toc}{\contentsline {section}{\numberline {4.2}Algoritmo}{20}{section.4.2}}
\@writefile{lof}{\contentsline {figure}{\numberline {4.1}{\ignorespaces Distancias na matriz USE. \relax }}{21}{figure.caption.18}}
\newlabel{fig:USEd2345}{{\M@TitleReference {4.1}{Distancias na matriz USE. \relax }}{21}{Distancias na matriz USE. \relax }{figure.caption.18}{}}
\@writefile{lof}{\contentsline {figure}{\numberline {4.2}{\ignorespaces Varia\IeC {\c c}\IeC {\~a}o de dist\IeC {\^a}ncia entre n\IeC {\'\i }veis. \relax }}{22}{figure.caption.19}}
\newlabel{fig:niveisDistancia}{{\M@TitleReference {4.2}{Varia\IeC {\c c}\IeC {\~a}o de dist\IeC {\^a}ncia entre n\IeC {\'\i }veis. \relax }}{22}{Variação de distância entre níveis. \relax }{figure.caption.19}{}}
\@writefile{lof}{\contentsline {figure}{\numberline {4.3}{\ignorespaces Distancias na matriz USE. \relax }}{23}{figure.caption.20}}
\newlabel{fig:dataflow}{{\M@TitleReference {4.3}{Distancias na matriz USE. \relax }}{23}{Distancias na matriz USE. \relax }{figure.caption.20}{}}
\@writefile{lof}{\contentsline {figure}{\numberline {4.4}{\ignorespaces Fluxo completo de execu\IeC {\c c}\IeC {\~a}o. \relax }}{24}{figure.caption.21}}
\newlabel{fig:fluxoCompleto}{{\M@TitleReference {4.4}{Fluxo completo de execu\IeC {\c c}\IeC {\~a}o. \relax }}{24}{Fluxo completo de execução. \relax }{figure.caption.21}{}}
\@writefile{toc}{\contentsline {subsection}{\numberline {4.2.1}Estrutura de Entrada}{25}{subsection.4.2.1}}
\newlabel{fig:xorCircuito}{{\M@TitleReference {4.5a}{Circuito L\IeC {\'o}gico\relax }}{25}{Circuito Lógico\relax }{figure.caption.22}{}}
\newlabel{sub@fig:xorCircuito}{{\M@TitleReference {a}{Circuito L\IeC {\'o}gico\relax }}{25}{Circuito Lógico\relax }{figure.caption.22}{}}
\newlabel{fig:xorGrafo}{{\M@TitleReference {4.5b}{Grafo Orientado\relax }}{25}{Grafo Orientado\relax }{figure.caption.22}{}}
\newlabel{sub@fig:xorGrafo}{{\M@TitleReference {b}{Grafo Orientado\relax }}{25}{Grafo Orientado\relax }{figure.caption.22}{}}
\@writefile{lof}{\contentsline {figure}{\numberline {4.5}{\ignorespaces Circuito l\IeC {\'o}gico e grafo orientado de um xor\relax }}{25}{figure.caption.22}}
\newlabel{fig:ciruitoGrafo}{{\M@TitleReference {4.5}{Circuito l\IeC {\'o}gico e grafo orientado de um xor\relax }}{25}{Circuito lógico e grafo orientado de um xor\relax }{figure.caption.22}{}}
\@writefile{toc}{\contentsline {subsection}{\numberline {4.2.2}Estruturas de Dados}{26}{subsection.4.2.2}}
\@writefile{lof}{\contentsline {figure}{\numberline {4.6}{\ignorespaces Matriz de c\IeC {\'e}lulas USE 4x4 com devida orienta\IeC {\c c}\IeC {\~a}o de cada c\IeC {\'e}lula. \relax }}{27}{figure.caption.23}}
\newlabel{fig:USE4x4}{{\M@TitleReference {4.6}{Matriz de c\IeC {\'e}lulas USE 4x4 com devida orienta\IeC {\c c}\IeC {\~a}o de cada c\IeC {\'e}lula. \relax }}{27}{Matriz de células USE 4x4 com devida orientação de cada célula. \relax }{figure.caption.23}{}}
\@writefile{toc}{\contentsline {subsection}{\numberline {4.2.3}Algoritmo de P\&R}{27}{subsection.4.2.3}}
\@writefile{lof}{\contentsline {figure}{\numberline {4.7}{\ignorespaces Arvore de Busca de solu\IeC {\c c}\IeC {\~o}es mostrando o Bracktracking. \relax }}{28}{figure.caption.24}}
\newlabel{fig:ArvoredeBusca}{{\M@TitleReference {4.7}{Arvore de Busca de solu\IeC {\c c}\IeC {\~o}es mostrando o Bracktracking. \relax }}{28}{Arvore de Busca de soluções mostrando o Bracktracking. \relax }{figure.caption.24}{}}
\@writefile{lof}{\contentsline {figure}{\numberline {4.8}{\ignorespaces Matriz de Dist\IeC {\^a}ncias. \relax }}{28}{figure.caption.25}}
\newlabel{fig:matrizDistancia}{{\M@TitleReference {4.8}{Matriz de Dist\IeC {\^a}ncias. \relax }}{28}{Matriz de Distâncias. \relax }{figure.caption.25}{}}
\newlabel{fig:grafoNivel}{{\M@TitleReference {4.9a}{Dist\IeC {\^a}ncia entre N\IeC {\'\i }veis\relax }}{29}{Distância entre Níveis\relax }{figure.caption.26}{}}
\newlabel{sub@fig:grafoNivel}{{\M@TitleReference {a}{Dist\IeC {\^a}ncia entre N\IeC {\'\i }veis\relax }}{29}{Distância entre Níveis\relax }{figure.caption.26}{}}
\newlabel{fig:matrizDistancia3}{{\M@TitleReference {4.9b}{Posi\IeC {\c c}\IeC {\~o}es V\IeC {\'a}lidas para os N\IeC {\'o}s \textit  {e} e \textit  {f} \relax }}{29}{Posições Válidas para os Nós \textit {e} e \textit {f} \relax }{figure.caption.26}{}}
\newlabel{sub@fig:matrizDistancia3}{{\M@TitleReference {b}{Posi\IeC {\c c}\IeC {\~o}es V\IeC {\'a}lidas para os N\IeC {\'o}s \textit  {e} e \textit  {f} \relax }}{29}{Posições Válidas para os Nós \textit {e} e \textit {f} \relax }{figure.caption.26}{}}
\@writefile{lof}{\contentsline {figure}{\numberline {4.9}{\ignorespaces Circuito l\IeC {\'o}gico e grafo orientado de um xor\relax }}{29}{figure.caption.26}}
\newlabel{fig:exemploDistancia3}{{\M@TitleReference {4.9}{Circuito l\IeC {\'o}gico e grafo orientado de um xor\relax }}{29}{Circuito lógico e grafo orientado de um xor\relax }{figure.caption.26}{}}
\@writefile{loa}{\contentsline {algorithm}{\numberline {1}{\ignorespaces Posicionamento e Roteamento - P\&R\relax }}{30}{algorithm.1}}
\@writefile{toc}{\contentsline {subsection}{\numberline {4.2.4}Parti\IeC {\c c}\IeC {\~a}o}{30}{subsection.4.2.4}}
\@writefile{lof}{\contentsline {figure}{\numberline {4.10}{\ignorespaces Calculo de coeficiente de agrupamento. \relax }}{32}{figure.caption.27}}
\newlabel{fig:coeficienteCluster}{{\M@TitleReference {4.10}{Calculo de coeficiente de agrupamento. \relax }}{32}{Calculo de coeficiente de agrupamento. \relax }{figure.caption.27}{}}
\@writefile{lof}{\contentsline {figure}{\numberline {4.11}{\ignorespaces Coeficiente de reconverg\IeC {\^e}ncia. \relax }}{32}{figure.caption.28}}
\newlabel{fig:metricaReconvergencia}{{\M@TitleReference {4.11}{Coeficiente de reconverg\IeC {\^e}ncia. \relax }}{32}{Coeficiente de reconvergência. \relax }{figure.caption.28}{}}
\@writefile{toc}{\contentsline {subsection}{\numberline {4.2.5}Sobreposi\IeC {\c c}\IeC {\~a}o de solu\IeC {\c c}\IeC {\~o}es}{32}{subsection.4.2.5}}
\@writefile{lof}{\contentsline {figure}{\numberline {4.12}{\ignorespaces Particionamento sobre o grafo do circuito \textit  {Xor}. \relax }}{33}{figure.caption.29}}
\newlabel{fig:particaoGrafo}{{\M@TitleReference {4.12}{Particionamento sobre o grafo do circuito \textit  {Xor}. \relax }}{33}{Particionamento sobre o grafo do circuito \textit {Xor}. \relax }{figure.caption.29}{}}
\@writefile{lof}{\contentsline {figure}{\numberline {4.13}{\ignorespaces Divis\IeC {\~a}o de um inteiro de 32 bits em uma matriz de ocupa\IeC {\c c}\IeC {\~a}o.\relax }}{34}{figure.caption.30}}
\newlabel{fig:mascaraOcupacao}{{\M@TitleReference {4.13}{Divis\IeC {\~a}o de um inteiro de 32 bits em uma matriz de ocupa\IeC {\c c}\IeC {\~a}o.\relax }}{34}{Divisão de um inteiro de 32 bits em uma matriz de ocupação.\relax }{figure.caption.30}{}}
\newlabel{fig:grafoXor}{{\M@TitleReference {4.14a}{Grafo \textit  {Xor}.\relax }}{34}{Grafo \textit {Xor}.\relax }{figure.caption.31}{}}
\newlabel{sub@fig:grafoXor}{{\M@TitleReference {a}{Grafo \textit  {Xor}.\relax }}{34}{Grafo \textit {Xor}.\relax }{figure.caption.31}{}}
\newlabel{fig:traducaoNomes}{{\M@TitleReference {4.14b}{Indexa\IeC {\c c}\IeC {\~a}o de n\IeC {\'o}s.\relax }}{34}{Indexação de nós.\relax }{figure.caption.31}{}}
\newlabel{sub@fig:traducaoNomes}{{\M@TitleReference {b}{Indexa\IeC {\c c}\IeC {\~a}o de n\IeC {\'o}s.\relax }}{34}{Indexação de nós.\relax }{figure.caption.31}{}}
\@writefile{lof}{\contentsline {figure}{\numberline {4.14}{\ignorespaces Indexa\IeC {\c c}\IeC {\~a}o de n\IeC {\'o}s no grafo do circuito \textit  {Xor}\relax }}{34}{figure.caption.31}}
\newlabel{fig:traducao}{{\M@TitleReference {4.14}{Indexa\IeC {\c c}\IeC {\~a}o de n\IeC {\'o}s no grafo do circuito \textit  {Xor}\relax }}{34}{Indexação de nós no grafo do circuito \textit {Xor}\relax }{figure.caption.31}{}}
\newlabel{fig:matrizOcupacao}{{\M@TitleReference {4.15a}{Matriz de ocupa\IeC {\c c}\IeC {\~a}o.\relax }}{35}{Matriz de ocupação.\relax }{figure.caption.32}{}}
\newlabel{sub@fig:matrizOcupacao}{{\M@TitleReference {a}{Matriz de ocupa\IeC {\c c}\IeC {\~a}o.\relax }}{35}{Matriz de ocupação.\relax }{figure.caption.32}{}}
\newlabel{fig:solucaoXor}{{\M@TitleReference {4.15b}{Solu\IeC {\c c}\IeC {\~a}o em matriz USE.\relax }}{35}{Solução em matriz USE.\relax }{figure.caption.32}{}}
\newlabel{sub@fig:solucaoXor}{{\M@TitleReference {b}{Solu\IeC {\c c}\IeC {\~a}o em matriz USE.\relax }}{35}{Solução em matriz USE.\relax }{figure.caption.32}{}}
\@writefile{lof}{\contentsline {figure}{\numberline {4.15}{\ignorespaces Matriz de ocupa\IeC {\c c}\IeC {\~a}o associada a uma solu\IeC {\c c}\IeC {\~a}o para o circuito \textit  {Xor}\relax }}{35}{figure.caption.32}}
\newlabel{fig:ciruitoGrafo}{{\M@TitleReference {4.15}{Matriz de ocupa\IeC {\c c}\IeC {\~a}o associada a uma solu\IeC {\c c}\IeC {\~a}o para o circuito \textit  {Xor}\relax }}{35}{Matriz de ocupação associada a uma solução para o circuito \textit {Xor}\relax }{figure.caption.32}{}}
\newlabel{fig:particao1}{{\M@TitleReference {4.16a}{Uma solu\IeC {\c c}\IeC {\~a}o para parti\IeC {\c c}\IeC {\~a}o 1.\relax }}{36}{Uma solução para partição 1.\relax }{figure.caption.33}{}}
\newlabel{sub@fig:particao1}{{\M@TitleReference {a}{Uma solu\IeC {\c c}\IeC {\~a}o para parti\IeC {\c c}\IeC {\~a}o 1.\relax }}{36}{Uma solução para partição 1.\relax }{figure.caption.33}{}}
\newlabel{fig:particao2}{{\M@TitleReference {4.16b}{Uma solu\IeC {\c c}\IeC {\~a}o para parti\IeC {\c c}\IeC {\~a}o 2.\relax }}{36}{Uma solução para partição 2.\relax }{figure.caption.33}{}}
\newlabel{sub@fig:particao2}{{\M@TitleReference {b}{Uma solu\IeC {\c c}\IeC {\~a}o para parti\IeC {\c c}\IeC {\~a}o 2.\relax }}{36}{Uma solução para partição 2.\relax }{figure.caption.33}{}}
\newlabel{fig:transposicao}{{\M@TitleReference {4.16c}{transposi\IeC {\c c}\IeC {\~a}o da solu\IeC {\c c}\IeC {\~a}o da parti\IeC {\c c}\IeC {\~a}o 2.\relax }}{36}{transposição da solução da partição 2.\relax }{figure.caption.33}{}}
\newlabel{sub@fig:transposicao}{{\M@TitleReference {c}{transposi\IeC {\c c}\IeC {\~a}o da solu\IeC {\c c}\IeC {\~a}o da parti\IeC {\c c}\IeC {\~a}o 2.\relax }}{36}{transposição da solução da partição 2.\relax }{figure.caption.33}{}}
\newlabel{fig:sobreposicao}{{\M@TitleReference {4.16d}{sobreposi\IeC {\c c}\IeC {\~a}o de solu\IeC {\c c}\IeC {\~o}es das parti\IeC {\c c}\IeC {\~o}es 1 e 2.\relax }}{36}{sobreposição de soluções das partições 1 e 2.\relax }{figure.caption.33}{}}
\newlabel{sub@fig:sobreposicao}{{\M@TitleReference {d}{sobreposi\IeC {\c c}\IeC {\~a}o de solu\IeC {\c c}\IeC {\~o}es das parti\IeC {\c c}\IeC {\~o}es 1 e 2.\relax }}{36}{sobreposição de soluções das partições 1 e 2.\relax }{figure.caption.33}{}}
\@writefile{lof}{\contentsline {figure}{\numberline {4.16}{\ignorespaces Circuito l\IeC {\'o}gico e grafo orientado de um xor\relax }}{36}{figure.caption.33}}
\newlabel{fig:particaoSobreposicao}{{\M@TitleReference {4.16}{Circuito l\IeC {\'o}gico e grafo orientado de um xor\relax }}{36}{Circuito lógico e grafo orientado de um xor\relax }{figure.caption.33}{}}
\@writefile{toc}{\contentsline {subsection}{\numberline {4.2.6}Caminhos Reconvergentes}{36}{subsection.4.2.6}}
\@writefile{toc}{\contentsline {subsection}{\numberline {4.2.7}Poda de solu\IeC {\c c}\IeC {\~o}es}{38}{subsection.4.2.7}}
\@writefile{lof}{\contentsline {figure}{\numberline {4.17}{\ignorespaces Rela\IeC {\c c}\IeC {\~a}o entre dist\IeC {\^a}ncia USE e espa\IeC {\c c}amento entre n\IeC {\'\i }veis.\relax }}{39}{figure.caption.34}}
\newlabel{fig:poda}{{\M@TitleReference {4.17}{Rela\IeC {\c c}\IeC {\~a}o entre dist\IeC {\^a}ncia USE e espa\IeC {\c c}amento entre n\IeC {\'\i }veis.\relax }}{39}{Relação entre distância USE e espaçamento entre níveis.\relax }{figure.caption.34}{}}
\@writefile{lof}{\contentsline {figure}{\numberline {4.18}{\ignorespaces Invers\IeC {\~a}o de sentido em uma rota.\relax }}{40}{figure.caption.35}}
\newlabel{fig:VariacaoDistanciaUSE}{{\M@TitleReference {4.18}{Invers\IeC {\~a}o de sentido em uma rota.\relax }}{40}{Inversão de sentido em uma rota.\relax }{figure.caption.35}{}}
\@writefile{toc}{\contentsline {section}{\numberline {4.3}Porta majority de 5 entradas}{40}{section.4.3}}
\citation{pedro2018}
\citation{pedro2018}
\citation{AUGUSTO}
\citation{pedro2018}
\@writefile{lof}{\contentsline {figure}{\numberline {4.19}{\ignorespaces Porta majority de 5 entradas proposta em \citep  {pedro2018}.\relax }}{41}{figure.caption.36}}
\newlabel{fig:MAJ5}{{\M@TitleReference {4.19}{Porta majority de 5 entradas proposta em \citep  {pedro2018}.\relax }}{41}{Porta majority de 5 entradas proposta em \citep {pedro2018}.\relax }{figure.caption.36}{}}
\@writefile{lof}{\contentsline {figure}{\numberline {4.20}{\ignorespaces Layout para circuito \textit  {C17} usando porta majority de 5 entradas.\relax }}{42}{figure.caption.37}}
\newlabel{fig:QCA_C17_maj5}{{\M@TitleReference {4.20}{Layout para circuito \textit  {C17} usando porta majority de 5 entradas.\relax }}{42}{Layout para circuito \textit {C17} usando porta majority de 5 entradas.\relax }{figure.caption.37}{}}
\citation{reis2016methodology}
\citation{trindade2016placement}
\citation{reis2016methodology}
\citation{reis2016methodology}
\citation{reis2016methodology}
\citation{reis2016methodology}
\citation{reis2016methodology}
\citation{trindade2016placement}
\citation{reis2016methodology}
\citation{reis2016methodology}
\@writefile{lof}{\addvspace {10pt}}
\@writefile{lot}{\addvspace {10pt}}
\@writefile{toc}{\contentsline {chapter}{\chapternumberline {5}Resultados}{43}{chapter.5}}
\@writefile{toc}{\contentsline {section}{\numberline {5.1}Compara\IeC {\c c}\IeC {\~a}o com trabalhos anteriores baseados no esquema USE}{43}{section.5.1}}
\newlabel{secuse}{{\M@TitleReference {5.1}{Compara\IeC {\c c}\IeC {\~a}o com trabalhos anteriores baseados no esquema USE}}{43}{Comparação com trabalhos anteriores baseados no esquema USE}{section.5.1}{}}
\citation{reis2016methodology}
\newlabel{fig:1bitAddMajQCA}{{\M@TitleReference {5.1a}{Layout do somador de 1 bit obtido com o P\&R com particionamento e sobreposi\IeC {\c c}\IeC {\~a}o.\relax }}{44}{Layout do somador de 1 bit obtido com o P\&R com particionamento e sobreposição.\relax }{figure.caption.38}{}}
\newlabel{sub@fig:1bitAddMajQCA}{{\M@TitleReference {a}{Layout do somador de 1 bit obtido com o P\&R com particionamento e sobreposi\IeC {\c c}\IeC {\~a}o.\relax }}{44}{Layout do somador de 1 bit obtido com o P\&R com particionamento e sobreposição.\relax }{figure.caption.38}{}}
\newlabel{fig:1bitAddMajQCA_ISCAS}{{\M@TitleReference {5.1b}{Layout do somador de 1 bit gerado manualmente em \citep  {reis2016methodology}.\relax }}{44}{Layout do somador de 1 bit gerado manualmente em \citep {reis2016methodology}.\relax }{figure.caption.38}{}}
\newlabel{sub@fig:1bitAddMajQCA_ISCAS}{{\M@TitleReference {b}{Layout do somador de 1 bit gerado manualmente em \citep  {reis2016methodology}.\relax }}{44}{Layout do somador de 1 bit gerado manualmente em \citep {reis2016methodology}.\relax }{figure.caption.38}{}}
\@writefile{lof}{\contentsline {figure}{\numberline {5.1}{\ignorespaces Compara\IeC {\c c}\IeC {\~a}o entre P\&R proposto com o layout manual \citep  {reis2016methodology} para somador de 1 bit\relax }}{44}{figure.caption.38}}
\newlabel{fig:1bitAdder}{{\M@TitleReference {5.1}{Compara\IeC {\c c}\IeC {\~a}o entre P\&R proposto com o layout manual \citep  {reis2016methodology} para somador de 1 bit\relax }}{44}{Comparação entre P\&R proposto com o layout manual \citep {reis2016methodology} para somador de 1 bit\relax }{figure.caption.38}{}}
\citation{reis2016methodology}
\citation{reis2016methodology}
\citation{reis2016methodology}
\citation{reis2016methodology}
\citation{reis2016methodology}
\citation{trindade2016placement}
\citation{trindade2016placement}
\citation{trindade2016placement}
\citation{trindade2016placement}
\citation{trindade2016placement}
\citation{amaru2014majority}
\citation{neutzling2017simple}
\citation{brayton2010abc}
\newlabel{fig:2bitAddMajQCA}{{\M@TitleReference {5.2a}{Layout gerado com a abordagem de sobreposi\IeC {\c c}\IeC {\~a}o/particionamento\relax }}{45}{Layout gerado com a abordagem de sobreposição/particionamento\relax }{figure.caption.39}{}}
\newlabel{sub@fig:2bitAddMajQCA}{{\M@TitleReference {a}{Layout gerado com a abordagem de sobreposi\IeC {\c c}\IeC {\~a}o/particionamento\relax }}{45}{Layout gerado com a abordagem de sobreposição/particionamento\relax }{figure.caption.39}{}}
\newlabel{fig:2bitAddMajQCA_ISCAS}{{\M@TitleReference {5.2b}{Somador de 2 bits a partir de duas c\IeC {\'e}lulas de 1 bit \citep  {reis2016methodology}.\relax }}{45}{Somador de 2 bits a partir de duas células de 1 bit \citep {reis2016methodology}.\relax }{figure.caption.39}{}}
\newlabel{sub@fig:2bitAddMajQCA_ISCAS}{{\M@TitleReference {b}{Somador de 2 bits a partir de duas c\IeC {\'e}lulas de 1 bit \citep  {reis2016methodology}.\relax }}{45}{Somador de 2 bits a partir de duas células de 1 bit \citep {reis2016methodology}.\relax }{figure.caption.39}{}}
\@writefile{lof}{\contentsline {figure}{\numberline {5.2}{\ignorespaces Compara\IeC {\c c}\IeC {\~a}o de layout manual\citep  {reis2016methodology} em bitslice com o layout gerado com o P\&R proposto\relax }}{45}{figure.caption.39}}
\newlabel{fig:2bitAdder}{{\M@TitleReference {5.2}{Compara\IeC {\c c}\IeC {\~a}o de layout manual\citep  {reis2016methodology} em bitslice com o layout gerado com o P\&R proposto\relax }}{45}{Comparação de layout manual\citep {reis2016methodology} em bitslice com o layout gerado com o P\&R proposto\relax }{figure.caption.39}{}}
\@writefile{toc}{\contentsline {section}{\numberline {5.2}Impacto da Topologia na \IeC {\'A}rea Final}{45}{section.5.2}}
\newlabel{xor}{{\M@TitleReference {5.2}{Impacto da Topologia na \IeC {\'A}rea Final}}{45}{Impacto da Topologia na Área Final}{section.5.2}{}}
\@writefile{lot}{\contentsline {table}{\numberline {5.1}{\ignorespaces Compara\IeC {\c c}\IeC {\~a}o do P\&R com Parti\IeC {\c c}\IeC {\~a}o/Sobreposi\IeC {\c c}\IeC {\~a}o com os resultados gerados pelo P\&R proposto em \citep  {trindade2016placement} para circuitos And/Or/Inversor sem portas majority.\relax }}{46}{table.caption.40}}
\newlabel{TabelaAlison}{{\M@TitleReference {5.1}{Compara\IeC {\c c}\IeC {\~a}o do P\&R com Parti\IeC {\c c}\IeC {\~a}o/Sobreposi\IeC {\c c}\IeC {\~a}o com os resultados gerados pelo P\&R proposto em \citep  {trindade2016placement} para circuitos And/Or/Inversor sem portas majority.\relax }}{46}{Comparação do P\&R com Partição/Sobreposição com os resultados gerados pelo P\&R proposto em \citep {trindade2016placement} para circuitos And/Or/Inversor sem portas majority.\relax }{table.caption.40}{}}
\@writefile{lot}{\contentsline {table}{\numberline {5.2}{\ignorespaces varia\IeC {\c c}\IeC {\~o}es de Layouts para Xor5 \relax }}{46}{table.caption.41}}
\newlabel{TabelaXOR}{{\M@TitleReference {5.2}{varia\IeC {\c c}\IeC {\~o}es de Layouts para Xor5 \relax }}{46}{variações de Layouts para Xor5 \relax }{table.caption.41}{}}
\@writefile{toc}{\contentsline {section}{\numberline {5.3}Avalia\IeC {\c c}\IeC {\~a}o do P\&R}{47}{section.5.3}}
\newlabel{aval}{{\M@TitleReference {5.3}{Avalia\IeC {\c c}\IeC {\~a}o do P\&R}}{47}{Avaliação do P\&R}{section.5.3}{}}
\@writefile{lot}{\contentsline {table}{\numberline {5.3}{\ignorespaces Resultado a n\IeC {\'\i }vel de porta e modelo QCA\relax }}{47}{table.caption.42}}
\newlabel{Tabelabench}{{\M@TitleReference {5.3}{Resultado a n\IeC {\'\i }vel de porta e modelo QCA\relax }}{47}{Resultado a nível de porta e modelo QCA\relax }{table.caption.42}{}}
\citation{neutzling2017simple}
\@writefile{toc}{\contentsline {section}{\numberline {5.4}Porta majority de 5 entradas}{48}{section.5.4}}
\newlabel{rmaj5}{{\M@TitleReference {5.4}{Porta majority de 5 entradas}}{48}{Porta majority de 5 entradas}{section.5.4}{}}
\@writefile{lot}{\contentsline {table}{\numberline {5.4}{\ignorespaces Resultado a n\IeC {\'\i }vel de porta e modelo QCA\relax }}{49}{table.caption.43}}
\newlabel{TabelaCplp}{{\M@TitleReference {5.4}{Resultado a n\IeC {\'\i }vel de porta e modelo QCA\relax }}{49}{Resultado a nível de porta e modelo QCA\relax }{table.caption.43}{}}
\@writefile{toc}{\contentsline {section}{\numberline {5.5}Poda de solu\IeC {\c c}\IeC {\~o}es}{49}{section.5.5}}
\newlabel{poda}{{\M@TitleReference {5.5}{Poda de solu\IeC {\c c}\IeC {\~o}es}}{49}{Poda de soluções}{section.5.5}{}}
\newlabel{fig:QCA_clpl_maj5}{{\M@TitleReference {5.3a}{Projeto QCA construido com portas majority de 5 entradas.\relax }}{50}{Projeto QCA construido com portas majority de 5 entradas.\relax }{figure.caption.44}{}}
\newlabel{sub@fig:QCA_clpl_maj5}{{\M@TitleReference {a}{Projeto QCA construido com portas majority de 5 entradas.\relax }}{50}{Projeto QCA construido com portas majority de 5 entradas.\relax }{figure.caption.44}{}}
\newlabel{fig:QCA_clpl_maj3}{{\M@TitleReference {5.3b}{Projeto QCA construido com portas majority de 3 entradas.\relax }}{50}{Projeto QCA construido com portas majority de 3 entradas.\relax }{figure.caption.44}{}}
\newlabel{sub@fig:QCA_clpl_maj3}{{\M@TitleReference {b}{Projeto QCA construido com portas majority de 3 entradas.\relax }}{50}{Projeto QCA construido com portas majority de 3 entradas.\relax }{figure.caption.44}{}}
\@writefile{lof}{\contentsline {figure}{\numberline {5.3}{\ignorespaces Compara\IeC {\c c}\IeC {\~a}o de layout para o circuito \textit  {clpl} usando portas majority de 3 e 5 entradas.\relax }}{50}{figure.caption.44}}
\newlabel{fig:cplpMaj}{{\M@TitleReference {5.3}{Compara\IeC {\c c}\IeC {\~a}o de layout para o circuito \textit  {clpl} usando portas majority de 3 e 5 entradas.\relax }}{50}{Comparação de layout para o circuito \textit {clpl} usando portas majority de 3 e 5 entradas.\relax }{figure.caption.44}{}}
\@writefile{lof}{\contentsline {figure}{\numberline {5.4}{\ignorespaces Reconverg\IeC {\^e}ncias no grafo do circuito \textit  {Xor}. \relax }}{51}{figure.caption.45}}
\newlabel{fig:ReconvergenciasXor}{{\M@TitleReference {5.4}{Reconverg\IeC {\^e}ncias no grafo do circuito \textit  {Xor}. \relax }}{51}{Reconvergências no grafo do circuito \textit {Xor}. \relax }{figure.caption.45}{}}
\@writefile{lof}{\contentsline {figure}{\numberline {5.5}{\ignorespaces parti\IeC {\c c}\IeC {\~o}es feitas sobre o grafo do circuito \textit  {Xor}. \relax }}{51}{figure.caption.46}}
\newlabel{fig:particaoXor}{{\M@TitleReference {5.5}{parti\IeC {\c c}\IeC {\~o}es feitas sobre o grafo do circuito \textit  {Xor}. \relax }}{51}{partições feitas sobre o grafo do circuito \textit {Xor}. \relax }{figure.caption.46}{}}
\@writefile{lot}{\contentsline {table}{\numberline {5.5}{\ignorespaces Resultados da poda por reconverg\IeC {\^e}ncia no grafo do circuito \textit  {Xor}\relax }}{52}{table.caption.47}}
\newlabel{tabelaPoda}{{\M@TitleReference {5.5}{Resultados da poda por reconverg\IeC {\^e}ncia no grafo do circuito \textit  {Xor}\relax }}{52}{Resultados da poda por reconvergência no grafo do circuito \textit {Xor}\relax }{table.caption.47}{}}
\@writefile{lof}{\addvspace {10pt}}
\@writefile{lot}{\addvspace {10pt}}
\@writefile{toc}{\contentsline {chapter}{\chapternumberline {6}Conclus\IeC {\~a}o}{53}{chapter.6}}
\@writefile{lof}{\addvspace {10pt}}
\@writefile{lot}{\addvspace {10pt}}
\@writefile{toc}{\contentsline {appendix}{\chapternumberline {A}Projetos de circuitos QCA}{55}{appendix.A}}
\newlabel{apendice}{{\M@TitleReference {A}{Projetos de circuitos QCA}}{55}{Projetos de circuitos QCA}{appendix.A}{}}
\@writefile{lof}{\contentsline {figure}{\numberline {A.1}{\ignorespaces Grafo do circuito \textit  {$XOR_{bit}$}. \relax }}{55}{figure.caption.48}}
\newlabel{fig:xorbit_graph}{{\M@TitleReference {A.1}{Grafo do circuito \textit  {$XOR_{bit}$}. \relax }}{55}{Grafo do circuito \textit {$XOR_{bit}$}. \relax }{figure.caption.48}{}}
\@writefile{lof}{\contentsline {figure}{\numberline {A.2}{\ignorespaces Projeto QCA para o circuito \textit  {$XOR_{bit}$}. \relax }}{55}{figure.caption.49}}
\newlabel{fig:xorbit_qca}{{\M@TitleReference {A.2}{Projeto QCA para o circuito \textit  {$XOR_{bit}$}. \relax }}{55}{Projeto QCA para o circuito \textit {$XOR_{bit}$}. \relax }{figure.caption.49}{}}
\@writefile{lof}{\contentsline {figure}{\numberline {A.3}{\ignorespaces Grafo do circuito \textit  {$XOR_{ABC}$}. \relax }}{56}{figure.caption.50}}
\newlabel{fig:xorabc_graph}{{\M@TitleReference {A.3}{Grafo do circuito \textit  {$XOR_{ABC}$}. \relax }}{56}{Grafo do circuito \textit {$XOR_{ABC}$}. \relax }{figure.caption.50}{}}
\@writefile{lof}{\contentsline {figure}{\numberline {A.4}{\ignorespaces Projeto QCA para o circuito \textit  {$XOR_{ABC}$}. \relax }}{56}{figure.caption.51}}
\newlabel{fig:xorabc_qca}{{\M@TitleReference {A.4}{Projeto QCA para o circuito \textit  {$XOR_{ABC}$}. \relax }}{56}{Projeto QCA para o circuito \textit {$XOR_{ABC}$}. \relax }{figure.caption.51}{}}
\@writefile{lof}{\contentsline {figure}{\numberline {A.5}{\ignorespaces Grafo do circuito \textit  {$XOR_{maj}$}. \relax }}{57}{figure.caption.52}}
\newlabel{fig:xormaj_graph}{{\M@TitleReference {A.5}{Grafo do circuito \textit  {$XOR_{maj}$}. \relax }}{57}{Grafo do circuito \textit {$XOR_{maj}$}. \relax }{figure.caption.52}{}}
\@writefile{lof}{\contentsline {figure}{\numberline {A.6}{\ignorespaces Projeto QCA para o circuito \textit  {$XOR_{maj}$}. \relax }}{57}{figure.caption.53}}
\newlabel{fig:xormaj_qca}{{\M@TitleReference {A.6}{Projeto QCA para o circuito \textit  {$XOR_{maj}$}. \relax }}{57}{Projeto QCA para o circuito \textit {$XOR_{maj}$}. \relax }{figure.caption.53}{}}
\@writefile{lof}{\contentsline {figure}{\numberline {A.7}{\ignorespaces Grafo do circuito \textit  {MUX2x1}. \relax }}{58}{figure.caption.54}}
\newlabel{fig:GRAPH_mux2x1}{{\M@TitleReference {A.7}{Grafo do circuito \textit  {MUX2x1}. \relax }}{58}{Grafo do circuito \textit {MUX2x1}. \relax }{figure.caption.54}{}}
\@writefile{lof}{\contentsline {figure}{\numberline {A.8}{\ignorespaces Projeto QCA para o circuito \textit  {MUX2x1}. \relax }}{58}{figure.caption.55}}
\newlabel{fig:QCA_SBCCi_mux2x1}{{\M@TitleReference {A.8}{Projeto QCA para o circuito \textit  {MUX2x1}. \relax }}{58}{Projeto QCA para o circuito \textit {MUX2x1}. \relax }{figure.caption.55}{}}
\@writefile{lof}{\contentsline {figure}{\numberline {A.9}{\ignorespaces Grafo do circuito \textit  {XOR}. \relax }}{59}{figure.caption.56}}
\newlabel{fig:GRAPH_xor}{{\M@TitleReference {A.9}{Grafo do circuito \textit  {XOR}. \relax }}{59}{Grafo do circuito \textit {XOR}. \relax }{figure.caption.56}{}}
\@writefile{lof}{\contentsline {figure}{\numberline {A.10}{\ignorespaces Projeto QCA para o circuito \textit  {XOR}. \relax }}{59}{figure.caption.57}}
\newlabel{fig:QCA_SBCCi_xor}{{\M@TitleReference {A.10}{Projeto QCA para o circuito \textit  {XOR}. \relax }}{59}{Projeto QCA para o circuito \textit {XOR}. \relax }{figure.caption.57}{}}
\@writefile{lof}{\contentsline {figure}{\numberline {A.11}{\ignorespaces Grafo do circuito \textit  {XNOR}. \relax }}{60}{figure.caption.58}}
\newlabel{fig:GRAPH_xnor}{{\M@TitleReference {A.11}{Grafo do circuito \textit  {XNOR}. \relax }}{60}{Grafo do circuito \textit {XNOR}. \relax }{figure.caption.58}{}}
\@writefile{lof}{\contentsline {figure}{\numberline {A.12}{\ignorespaces Projeto QCA para o circuito \textit  {XNOR}. \relax }}{60}{figure.caption.59}}
\newlabel{fig:QCA_SBCCi_xnor}{{\M@TitleReference {A.12}{Projeto QCA para o circuito \textit  {XNOR}. \relax }}{60}{Projeto QCA para o circuito \textit {XNOR}. \relax }{figure.caption.59}{}}
\@writefile{lof}{\contentsline {figure}{\numberline {A.13}{\ignorespaces Grafo do circuito \textit  {Full-adder 1-bit}. \relax }}{61}{figure.caption.60}}
\newlabel{fig:GRAPH_FullAdder1bit}{{\M@TitleReference {A.13}{Grafo do circuito \textit  {Full-adder 1-bit}. \relax }}{61}{Grafo do circuito \textit {Full-adder 1-bit}. \relax }{figure.caption.60}{}}
\@writefile{lof}{\contentsline {figure}{\numberline {A.14}{\ignorespaces Projeto QCA para o circuito \textit  {Full-adder 1-bit}. \relax }}{61}{figure.caption.61}}
\newlabel{fig:QCA_SBCCI_FullAdder1bit}{{\M@TitleReference {A.14}{Projeto QCA para o circuito \textit  {Full-adder 1-bit}. \relax }}{61}{Projeto QCA para o circuito \textit {Full-adder 1-bit}. \relax }{figure.caption.61}{}}
\@writefile{lof}{\contentsline {figure}{\numberline {A.15}{\ignorespaces Grafo do circuito \textit  {Parity Generator}. \relax }}{62}{figure.caption.62}}
\newlabel{fig:GRAPH_parityGenerator}{{\M@TitleReference {A.15}{Grafo do circuito \textit  {Parity Generator}. \relax }}{62}{Grafo do circuito \textit {Parity Generator}. \relax }{figure.caption.62}{}}
\@writefile{lof}{\contentsline {figure}{\numberline {A.16}{\ignorespaces Projeto QCA para o circuito \textit  {Parity Generator}. \relax }}{62}{figure.caption.63}}
\newlabel{fig:QCA_SBCCi_parityGenerator}{{\M@TitleReference {A.16}{Projeto QCA para o circuito \textit  {Parity Generator}. \relax }}{62}{Projeto QCA para o circuito \textit {Parity Generator}. \relax }{figure.caption.63}{}}
\@writefile{lof}{\contentsline {figure}{\numberline {A.17}{\ignorespaces Grafo do circuito \textit  {Parity Checker}. \relax }}{63}{figure.caption.64}}
\newlabel{fig:GRAPH_parityChecker}{{\M@TitleReference {A.17}{Grafo do circuito \textit  {Parity Checker}. \relax }}{63}{Grafo do circuito \textit {Parity Checker}. \relax }{figure.caption.64}{}}
\@writefile{lof}{\contentsline {figure}{\numberline {A.18}{\ignorespaces Projeto QCA para o circuito \textit  {Parity Checker}. \relax }}{63}{figure.caption.65}}
\newlabel{fig:QCA_SBCCi_parityChecker}{{\M@TitleReference {A.18}{Projeto QCA para o circuito \textit  {Parity Checker}. \relax }}{63}{Projeto QCA para o circuito \textit {Parity Checker}. \relax }{figure.caption.65}{}}
\@writefile{lof}{\contentsline {figure}{\numberline {A.19}{\ignorespaces Grafo do cricuito Parity. \relax }}{64}{figure.caption.66}}
\newlabel{fig:parity_graph}{{\M@TitleReference {A.19}{Grafo do cricuito Parity. \relax }}{64}{Grafo do cricuito Parity. \relax }{figure.caption.66}{}}
\@writefile{lof}{\contentsline {figure}{\numberline {A.20}{\ignorespaces Design QCA para o cricuito Parity. \relax }}{64}{figure.caption.67}}
\newlabel{fig:parity_qca}{{\M@TitleReference {A.20}{Design QCA para o cricuito Parity. \relax }}{64}{Design QCA para o cricuito Parity. \relax }{figure.caption.67}{}}
\bibstyle{ppgccufmg}
\bibdata{dis}
\bibcite{pedro2018}{{1}{2016}{{Pedro Arthur R. L.~Silva}}{{}}}
\@writefile{toc}{\contentsline {chapter}{Refer\^encias Bibliogr\'aficas}{65}{section*.69}}
\memsetcounter{lastsheet}{74}
\memsetcounter{lastpage}{65}
